%YAML 1.1
%TAG !u! tag:unity3d.com,2011:
--- !u!114 &11400000
MonoBehaviour:
  m_ObjectHideFlags: 0
  m_CorrespondingSourceObject: {fileID: 0}
  m_PrefabInstance: {fileID: 0}
  m_PrefabAsset: {fileID: 0}
  m_GameObject: {fileID: 0}
  m_Enabled: 1
  m_EditorHideFlags: 0
  m_Script: {fileID: 11500000, guid: 95e66c6366d904e98bc83428217d4fd7, type: 3}
  m_Name: 2lvlStatistic
  m_EditorClassIdentifier: 
  _data:
    _json: '{"graph":{"variables":{"collection":{"$content":[],"$version":"A"},"$version":"A"},"controlInputDefinitions":[],"controlOutputDefinitions":[],"valueInputDefinitions":[],"valueOutputDefinitions":[],"title":null,"summary":null,"pan":{"x":-13.7395,"y":-263.918},"zoom":0.7333333,"elements":[{"coroutine":false,"defaultValues":{},"position":{"x":-791.0,"y":110.0},"guid":"6feb25ec-f3c8-4da9-89c3-357a97266d5c","$version":"A","$type":"Unity.VisualScripting.Start"},{"defaultValues":{},"position":{"x":-142.0,"y":296.0},"guid":"8bccde52-48e4-4f97-9cd8-1735f28333e5","$version":"A","$type":"Unity.VisualScripting.If","$id":"11"},{"chainable":false,"member":{"name":".ctor","parameterTypes":["System.Single","System.Single","System.Single","System.Single"],"targetType":"UnityEngine.Rect","targetTypeName":"UnityEngine.Rect","$version":"A"},"defaultValues":{"%x":{"$content":0.0,"$type":"System.Single"},"%y":{"$content":0.0,"$type":"System.Single"},"%width":{"$content":800.0,"$type":"System.Single"},"%height":{"$content":600.0,"$type":"System.Single"}},"position":{"x":39.0,"y":-84.0},"guid":"e09f3f17-c5fa-4751-b67e-5a308622f3c7","$version":"A","$type":"Unity.VisualScripting.InvokeMember","$id":"13"},{"member":{"name":"width","parameterTypes":null,"targetType":"UnityEngine.Screen","targetTypeName":"UnityEngine.Screen","$version":"A"},"defaultValues":{},"position":{"x":-367.0,"y":-54.0},"guid":"7d0229a4-c494-41ad-8e8c-31921c68e559","$version":"A","$type":"Unity.VisualScripting.GetMember","$id":"16"},{"inputCount":2,"defaultValues":{"1":{"x":0.0,"y":1.0,"z":0.0,"$type":"UnityEngine.Vector3"}},"position":{"x":-235.0,"y":574.0},"guid":"5ce10dec-34c3-437a-8823-5c8051954570","$version":"A","$type":"Unity.VisualScripting.Vector3Sum","$id":"19"},{"numeric":true,"defaultValues":{"b":{"$content":0.0,"$type":"System.Single"}},"position":{"x":-354.0,"y":-781.0},"guid":"d8b41c19-ee1d-48f8-a205-680379300066","$version":"A","$type":"Unity.VisualScripting.LessOrEqual","$id":"21"},{"specifyFallback":false,"kind":"Application","defaultValues":{"name":{"$content":"TotalTry","$type":"System.String"}},"position":{"x":-537.0,"y":-751.0},"guid":"1021b286-38cb-4e6a-96d7-baff5e2e5f33","$version":"A","$type":"Unity.VisualScripting.GetVariable","$id":"23"},{"coroutine":false,"defaultValues":{},"position":{"x":-526.0,"y":-929.0},"guid":"bee816ec-fb0c-4700-82e0-6504e66cbfb5","$version":"A","$type":"Unity.VisualScripting.Update","$id":"25"},{"specifyFallback":false,"kind":"Object","defaultValues":{"name":{"$content":"Platform","$type":"System.String"},"object":null},"position":{"x":-552.0,"y":620.0},"guid":"efde7370-3765-4e58-9eac-f7a4bf2c230f","$version":"A","$type":"Unity.VisualScripting.GetVariable","$id":"27"},{"chainable":false,"member":{"name":"LoadScene","parameterTypes":["System.String"],"targetType":"UnityEngine.SceneManagement.SceneManager","targetTypeName":"UnityEngine.SceneManagement.SceneManager","$version":"A"},"defaultValues":{"%sceneName":{"$content":"GameOver","$type":"System.String"}},"position":{"x":101.0,"y":-887.0},"guid":"bf397503-d0f4-45e3-a389-91a28992b086","$version":"A","$type":"Unity.VisualScripting.InvokeMember","$id":"29"},{"chainable":false,"member":{"name":"Instantiate","parameterTypes":["UnityEngine.Object","UnityEngine.Vector3","UnityEngine.Quaternion"],"targetType":"UnityEngine.GameObject","targetTypeName":"UnityEngine.GameObject","$version":"A"},"defaultValues":{"%original":null,"%position":{"x":0.0,"y":0.0,"z":0.0,"$type":"UnityEngine.Vector3"}},"position":{"x":49.0,"y":364.0},"guid":"ab7c7c46-288b-4ab6-b317-ba4084de0802","$version":"A","$type":"Unity.VisualScripting.InvokeMember","$id":"32"},{"specifyFallback":false,"kind":"Scene","defaultValues":{"name":{"$content":"Ball_inScene","$type":"System.String"}},"position":{"x":-598.0,"y":434.0},"guid":"ce3114af-ecad-4ca2-9ae9-fb2a0e0f6351","$version":"A","$type":"Unity.VisualScripting.GetVariable","$id":"35"},{"numeric":true,"defaultValues":{"b":{"$content":0.0,"$type":"System.Single"}},"position":{"x":-348.0,"y":442.0},"guid":"6d5289ff-2a07-4fd8-8a31-c6662190605a","$version":"A","$type":"Unity.VisualScripting.LessOrEqual","$id":"37"},{"defaultValues":{},"position":{"x":-205.0,"y":-924.0},"guid":"05dc4823-c8ec-41ed-add0-efd6c7737903","$version":"A","$type":"Unity.VisualScripting.If","$id":"39"},{"coroutine":false,"defaultValues":{},"position":{"x":-397.0,"y":319.0},"guid":"ad834182-54a1-4cc6-be69-d953e60320f6","$version":"A","$type":"Unity.VisualScripting.Update","$id":"41"},{"coroutine":false,"defaultValues":{},"position":{"x":22.0,"y":-362.0},"guid":"0573d417-5870-4f07-95ef-8be849f8926f","$version":"A","$type":"Unity.VisualScripting.OnGUI","$id":"43"},{"member":{"name":"position","parameterTypes":null,"targetType":"UnityEngine.Transform","targetTypeName":"UnityEngine.Transform","$version":"A"},"defaultValues":{"target":null},"position":{"x":-386.0,"y":648.0},"guid":"97ec02e3-826a-48df-a4e8-59cc28474b57","$version":"A","$type":"Unity.VisualScripting.GetMember","$id":"45"},{"chainable":false,"member":{"name":"Label","parameterTypes":["UnityEngine.Rect","System.String"],"targetType":"UnityEngine.GUI","targetTypeName":"UnityEngine.GUI","$version":"A"},"defaultValues":{"%position":{"xMin":0.0,"yMin":0.0,"xMax":0.0,"yMax":0.0,"$type":"UnityEngine.Rect"},"%text":{"$content":"","$type":"System.String"}},"position":{"x":246.0,"y":-291.0},"guid":"2f8041e9-5ae2-42e4-9ca0-e59e7e5ca143","$version":"A","$type":"Unity.VisualScripting.InvokeMember","$id":"48"},{"defaultValues":{"dividend":{"$content":1.0,"$type":"System.Single"},"divisor":{"$content":2.0,"$type":"System.Single"}},"position":{"x":-187.0,"y":-52.0},"guid":"27182892-c409-4c56-b1c9-f36b4e268add","$version":"A","$type":"Unity.VisualScripting.ScalarDivide","$id":"51"},{"chainable":false,"member":{"name":"LoadScene","parameterTypes":["System.String"],"targetType":"UnityEngine.SceneManagement.SceneManager","targetTypeName":"UnityEngine.SceneManagement.SceneManager","$version":"A"},"defaultValues":{"%sceneName":{"$content":"WinScreen","$type":"System.String"}},"position":{"x":276.0,"y":-588.0},"guid":"617d93e7-6e95-4921-89f6-bf28109614cd","$version":"A","$type":"Unity.VisualScripting.InvokeMember","$id":"53"},{"type":"UnityEngine.Quaternion","value":{"x":0.0,"y":0.0,"z":0.0,"w":0.0,"$type":"UnityEngine.Quaternion"},"defaultValues":{},"position":{"x":-65.0,"y":695.0},"guid":"397f2554-4363-4dbd-88db-8d9d6e23bbe1","$version":"A","$type":"Unity.VisualScripting.Literal","$id":"56"},{"chainable":false,"member":{"name":"ToString","parameterTypes":[],"targetType":"System.Int32","targetTypeName":"System.Int32","$version":"A"},"defaultValues":{"target":{"$content":0,"$type":"System.Int32"}},"position":{"x":-1190.0,"y":-272.0},"guid":"d965cad2-74a8-4d49-92f0-65418dfcf48c","$version":"A","$type":"Unity.VisualScripting.InvokeMember","$id":"58"},{"defaultValues":{},"position":{"x":-25.0,"y":-571.0},"guid":"7d75a6dc-de18-437a-8ece-c0836d314872","$version":"A","$type":"Unity.VisualScripting.If","$id":"61"},{"numeric":true,"defaultValues":{"b":{"$content":0.0,"$type":"System.Single"}},"position":{"x":-237.0,"y":-515.0},"guid":"5352eb07-7822-47e5-8965-8999e2183a17","$version":"A","$type":"Unity.VisualScripting.LessOrEqual","$id":"63"},{"specifyFallback":false,"kind":"Object","defaultValues":{"name":{"$content":"Ball","$type":"System.String"},"object":null},"position":{"x":-151.0,"y":438.0},"guid":"95bbab23-9728-44d3-9cec-be00180ebb95","$version":"A","$type":"Unity.VisualScripting.GetVariable","$id":"65"},{"specifyFallback":false,"kind":"Scene","defaultValues":{"name":{"$content":"BrickAlive","$type":"System.String"}},"position":{"x":-459.0,"y":-464.0},"guid":"e2f93de4-43bf-4344-9d50-6fe8057ee661","$version":"A","$type":"Unity.VisualScripting.GetVariable","$id":"67"},{"specifyFallback":false,"kind":"Application","defaultValues":{"name":{"$content":"TotalScore","$type":"System.String"}},"position":{"x":-460.0,"y":-188.0},"guid":"8e858843-9551-4b1a-92d4-b887b9ce1f87","$version":"A","$type":"Unity.VisualScripting.GetVariable","$id":"69"},{"chainable":false,"member":{"name":"ToString","parameterTypes":[],"targetType":"System.Int32","targetTypeName":"System.Int32","$version":"A"},"defaultValues":{"target":{"$content":0,"$type":"System.Int32"}},"position":{"x":-259.0,"y":-186.0},"guid":"8c58356d-dd9f-4692-bcef-c46771fcc98a","$version":"A","$type":"Unity.VisualScripting.InvokeMember","$id":"71"},{"inputCount":2,"defaultValues":{},"position":{"x":-135.0,"y":-313.0},"guid":"e3615416-e681-4f6d-bad8-b8ff84d855ab","$version":"A","$type":"Unity.VisualScripting.GenericSum","$id":"74"},{"coroutine":false,"defaultValues":{},"position":{"x":-474.0,"y":-597.0},"guid":"e299afe4-3391-495c-aabb-acf035baf978","$version":"A","$type":"Unity.VisualScripting.Update","$id":"76"},{"chainable":false,"member":{"name":".ctor","parameterTypes":["System.Single","System.Single","System.Single","System.Single"],"targetType":"UnityEngine.Rect","targetTypeName":"UnityEngine.Rect","$version":"A"},"defaultValues":{"%x":{"$content":0.0,"$type":"System.Single"},"%y":{"$content":0.0,"$type":"System.Single"},"%width":{"$content":800.0,"$type":"System.Single"},"%height":{"$content":600.0,"$type":"System.Single"}},"position":{"x":-875.0,"y":-119.0},"guid":"e021804e-af25-49b2-824c-6a36fd8a3afc","$version":"A","$type":"Unity.VisualScripting.InvokeMember","$id":"78"},{"defaultValues":{"dividend":{"$content":1.0,"$type":"System.Single"},"divisor":{"$content":3.0,"$type":"System.Single"}},"position":{"x":-1101.0,"y":-87.0},"guid":"c9805467-a202-4cee-a362-1346c06e3f1d","$version":"A","$type":"Unity.VisualScripting.ScalarDivide","$id":"81"},{"specifyFallback":false,"kind":"Application","defaultValues":{"name":{"$content":"TotalTry","$type":"System.String"}},"position":{"x":-1381.0,"y":-231.0},"guid":"3a96dc44-5839-481a-87df-60937e0c9d4c","$version":"A","$type":"Unity.VisualScripting.GetVariable","$id":"83"},{"coroutine":false,"defaultValues":{},"position":{"x":-860.0,"y":-445.0},"guid":"140d9e46-d0df-493f-9ebd-d1547ac40b74","$version":"A","$type":"Unity.VisualScripting.OnGUI","$id":"85"},{"chainable":false,"member":{"name":"Label","parameterTypes":["UnityEngine.Rect","System.String"],"targetType":"UnityEngine.GUI","targetTypeName":"UnityEngine.GUI","$version":"A"},"defaultValues":{"%position":{"xMin":0.0,"yMin":0.0,"xMax":0.0,"yMax":0.0,"$type":"UnityEngine.Rect"},"%text":{"$content":"","$type":"System.String"}},"position":{"x":-668.0,"y":-326.0},"guid":"d025a964-59eb-458f-9d65-9bfc5e37f794","$version":"A","$type":"Unity.VisualScripting.InvokeMember","$id":"87"},{"inputCount":2,"defaultValues":{},"position":{"x":-1070.0,"y":-469.0},"guid":"44724c65-d4ef-4078-9a82-1ceb94f12369","$version":"A","$type":"Unity.VisualScripting.GenericSum","$id":"90"},{"type":"System.String","value":{"$content":"Ball
      left:  ","$type":"System.String"},"defaultValues":{},"position":{"x":-1301.0,"y":-467.0},"guid":"7d5c444e-fa38-4a40-8ccb-8a065dcbdeb4","$version":"A","$type":"Unity.VisualScripting.Literal","$id":"92"},{"type":"System.String","value":{"$content":"Score:
      ","$type":"System.String"},"defaultValues":{},"position":{"x":-328.0,"y":-333.0},"guid":"710fad55-213a-481f-8713-f401a3fec5b6","$version":"A","$type":"Unity.VisualScripting.Literal","$id":"94"},{"member":{"name":"width","parameterTypes":null,"targetType":"UnityEngine.Screen","targetTypeName":"UnityEngine.Screen","$version":"A"},"defaultValues":{},"position":{"x":-1281.0,"y":-89.0},"guid":"da7df7b3-c382-45ca-9840-cbac3e9d1887","$version":"A","$type":"Unity.VisualScripting.GetMember","$id":"96"},{"sourceUnit":{"$ref":"61"},"sourceKey":"ifTrue","destinationUnit":{"$ref":"53"},"destinationKey":"enter","guid":"75ff2bee-91d1-4444-90f9-0d331e01e067","$type":"Unity.VisualScripting.ControlConnection"},{"sourceUnit":{"$ref":"39"},"sourceKey":"ifTrue","destinationUnit":{"$ref":"29"},"destinationKey":"enter","guid":"9541bfd3-52ed-4cc5-ad05-2747421a490b","$type":"Unity.VisualScripting.ControlConnection"},{"sourceUnit":{"$ref":"25"},"sourceKey":"trigger","destinationUnit":{"$ref":"39"},"destinationKey":"enter","guid":"60c868e6-4aa9-406a-acb3-921c0b94d7d7","$type":"Unity.VisualScripting.ControlConnection"},{"sourceUnit":{"$ref":"41"},"sourceKey":"trigger","destinationUnit":{"$ref":"11"},"destinationKey":"enter","guid":"52b80f0e-b37c-469b-b3b0-67a4c41f6c3e","$type":"Unity.VisualScripting.ControlConnection"},{"sourceUnit":{"$ref":"11"},"sourceKey":"ifTrue","destinationUnit":{"$ref":"32"},"destinationKey":"enter","guid":"f9547954-c27f-4873-bcad-cc7b29675377","$type":"Unity.VisualScripting.ControlConnection"},{"sourceUnit":{"$ref":"76"},"sourceKey":"trigger","destinationUnit":{"$ref":"61"},"destinationKey":"enter","guid":"140c29cc-69f8-4dd9-b0bb-f0de4dc7f9eb","$type":"Unity.VisualScripting.ControlConnection"},{"sourceUnit":{"$ref":"43"},"sourceKey":"trigger","destinationUnit":{"$ref":"48"},"destinationKey":"enter","guid":"8bbf1ee2-129d-4fb2-9dd2-10e728b3422e","$type":"Unity.VisualScripting.ControlConnection"},{"sourceUnit":{"$ref":"85"},"sourceKey":"trigger","destinationUnit":{"$ref":"87"},"destinationKey":"enter","guid":"f2f558aa-c4e6-4150-827c-2d204cf5808f","$type":"Unity.VisualScripting.ControlConnection"},{"sourceUnit":{"$ref":"90"},"sourceKey":"sum","destinationUnit":{"$ref":"87"},"destinationKey":"%text","guid":"039eee0d-5693-474c-b050-9706f079f3e4","$type":"Unity.VisualScripting.ValueConnection"},{"sourceUnit":{"$ref":"58"},"sourceKey":"result","destinationUnit":{"$ref":"90"},"destinationKey":"1","guid":"33eaec3a-33d3-4ece-afff-085b296088ce","$type":"Unity.VisualScripting.ValueConnection"},{"sourceUnit":{"$ref":"94"},"sourceKey":"output","destinationUnit":{"$ref":"74"},"destinationKey":"0","guid":"b0df4d59-d206-406b-a711-0e10d09b3a15","$type":"Unity.VisualScripting.ValueConnection"},{"sourceUnit":{"$ref":"13"},"sourceKey":"result","destinationUnit":{"$ref":"48"},"destinationKey":"%position","guid":"8442d06e-40df-4bde-bc3a-b22a4d13fc70","$type":"Unity.VisualScripting.ValueConnection"},{"sourceUnit":{"$ref":"56"},"sourceKey":"output","destinationUnit":{"$ref":"32"},"destinationKey":"%rotation","guid":"49792f5b-f311-4ae5-9abf-1747c98d4175","$type":"Unity.VisualScripting.ValueConnection"},{"sourceUnit":{"$ref":"23"},"sourceKey":"value","destinationUnit":{"$ref":"21"},"destinationKey":"a","guid":"fd073634-85da-4d0d-942d-0b69ed683466","$type":"Unity.VisualScripting.ValueConnection"},{"sourceUnit":{"$ref":"92"},"sourceKey":"output","destinationUnit":{"$ref":"90"},"destinationKey":"0","guid":"a98baf07-3b49-428a-bbf9-d970bdc6e101","$type":"Unity.VisualScripting.ValueConnection"},{"sourceUnit":{"$ref":"65"},"sourceKey":"value","destinationUnit":{"$ref":"32"},"destinationKey":"%original","guid":"7e29388a-ba86-4a63-91a9-43b7a28a86f7","$type":"Unity.VisualScripting.ValueConnection"},{"sourceUnit":{"$ref":"83"},"sourceKey":"value","destinationUnit":{"$ref":"58"},"destinationKey":"target","guid":"45bba17c-4ffd-4ae1-ba60-37a3406d15e5","$type":"Unity.VisualScripting.ValueConnection"},{"sourceUnit":{"$ref":"63"},"sourceKey":"comparison","destinationUnit":{"$ref":"61"},"destinationKey":"condition","guid":"6f677aa3-cf30-4353-8831-a5b2c5d6eb74","$type":"Unity.VisualScripting.ValueConnection"},{"sourceUnit":{"$ref":"16"},"sourceKey":"value","destinationUnit":{"$ref":"51"},"destinationKey":"dividend","guid":"0f7482c7-2433-4325-943a-704d2717f877","$type":"Unity.VisualScripting.ValueConnection"},{"sourceUnit":{"$ref":"37"},"sourceKey":"comparison","destinationUnit":{"$ref":"11"},"destinationKey":"condition","guid":"cb60d3fc-6228-47f5-a715-d12a343b6e75","$type":"Unity.VisualScripting.ValueConnection"},{"sourceUnit":{"$ref":"27"},"sourceKey":"value","destinationUnit":{"$ref":"45"},"destinationKey":"target","guid":"503f8e8b-2035-43fc-8a2b-2239e24f79c6","$type":"Unity.VisualScripting.ValueConnection"},{"sourceUnit":{"$ref":"45"},"sourceKey":"value","destinationUnit":{"$ref":"19"},"destinationKey":"0","guid":"b16b625b-6324-4748-b4bb-094e27d14584","$type":"Unity.VisualScripting.ValueConnection"},{"sourceUnit":{"$ref":"78"},"sourceKey":"result","destinationUnit":{"$ref":"87"},"destinationKey":"%position","guid":"da05eda3-ff6a-49b7-a8c4-1479f7d37604","$type":"Unity.VisualScripting.ValueConnection"},{"sourceUnit":{"$ref":"71"},"sourceKey":"result","destinationUnit":{"$ref":"74"},"destinationKey":"1","guid":"c71a4c0a-0434-4a81-9f1b-54a039f4788c","$type":"Unity.VisualScripting.ValueConnection"},{"sourceUnit":{"$ref":"96"},"sourceKey":"value","destinationUnit":{"$ref":"81"},"destinationKey":"dividend","guid":"61baeb73-5016-4833-b8f5-8ec77e97daae","$type":"Unity.VisualScripting.ValueConnection"},{"sourceUnit":{"$ref":"67"},"sourceKey":"value","destinationUnit":{"$ref":"63"},"destinationKey":"a","guid":"56516a13-22b4-4532-a635-1ba19bc415b2","$type":"Unity.VisualScripting.ValueConnection"},{"sourceUnit":{"$ref":"21"},"sourceKey":"comparison","destinationUnit":{"$ref":"39"},"destinationKey":"condition","guid":"2c56afc4-699b-4c97-a9a4-67689cb18d86","$type":"Unity.VisualScripting.ValueConnection"},{"sourceUnit":{"$ref":"51"},"sourceKey":"quotient","destinationUnit":{"$ref":"13"},"destinationKey":"%x","guid":"d6b992a7-fa62-4c98-88f1-7992e3993182","$type":"Unity.VisualScripting.ValueConnection"},{"sourceUnit":{"$ref":"19"},"sourceKey":"sum","destinationUnit":{"$ref":"32"},"destinationKey":"%position","guid":"776b2b45-7c1f-43fe-b165-c86593b85d3e","$type":"Unity.VisualScripting.ValueConnection"},{"sourceUnit":{"$ref":"35"},"sourceKey":"value","destinationUnit":{"$ref":"37"},"destinationKey":"a","guid":"94a4a73a-3e33-4204-8666-822b132651b2","$type":"Unity.VisualScripting.ValueConnection"},{"sourceUnit":{"$ref":"81"},"sourceKey":"quotient","destinationUnit":{"$ref":"78"},"destinationKey":"%x","guid":"7c1df524-c9e1-4a36-a1fe-d06ff50db74a","$type":"Unity.VisualScripting.ValueConnection"},{"sourceUnit":{"$ref":"74"},"sourceKey":"sum","destinationUnit":{"$ref":"48"},"destinationKey":"%text","guid":"b20cd6e3-4b72-4182-ab39-02d958b25779","$type":"Unity.VisualScripting.ValueConnection"},{"sourceUnit":{"$ref":"69"},"sourceKey":"value","destinationUnit":{"$ref":"71"},"destinationKey":"target","guid":"ae9f833b-ab48-4bdf-85b6-b6f2833c144f","$type":"Unity.VisualScripting.ValueConnection"},{"position":{"xMin":-584.0,"yMin":-1008.0,"xMax":507.0,"yMax":-634.0},"label":"GameOver","comment":null,"color":{"r":0.0,"g":0.0,"b":0.0,"a":1.0},"guid":"a9e0f57c-0aa1-49ff-bd58-31104b9a6347","$version":"A","$type":"Unity.VisualScripting.GraphGroup"}],"$version":"A"}}'
    _objectReferences: []
